<svg id="svg" xmlns="http://www.w3.org/2000/svg" style="fill: #fff;" version="1.0" height="100%" viewBox="0 0 960.000000 243.000000" preserveAspectRatio="xMidYMid meet">
                <g transform="translate(-50.000000,243.000000) scale(0.100000,-0.100000)" stroke="none">
                  <path d="M3779 1676 c-140 -30 -286 -121 -365 -228 -96 -131 -128 -225 -128
    -383 -1 -168 43 -285 150 -404 129 -143 285 -211 489 -211 165 0 273 35 393
    127 119 91 207 226 232 353 16 81 14 215 -5 296 -43 191 -226 376 -435 439
    -76 22 -248 28 -331 11z m298 -121 c89 -28 143 -58 143 -79 0 -16 -3 -15 -223
    43 -65 17 -127 31 -138 31 -10 0 -19 7 -19 15 0 26 143 20 237 -10z m-222 -30
    c36 -5 308 -70 344 -81 11 -3 8 -11 -10 -30 -38 -41 -52 -45 -107 -29 -65 20
    -254 61 -314 70 -30 4 -48 11 -48 20 0 20 60 66 79 61 9 -2 34 -7 56 -11z
    m-183 -78 c-3 -57 -1 -67 23 -95 l26 -31 -68 -33 c-115 -56 -142 -133 -79
    -228 27 -40 149 -134 199 -152 31 -11 36 -28 9 -28 -28 0 -106 -54 -133 -91
    -24 -34 -31 -86 -16 -126 14 -40 -11 -26 -81 45 -125 125 -174 282 -142 453
    22 118 106 249 204 321 56 41 61 38 58 -35z m719 -152 c67 -136 73 -274 18
    -420 -33 -88 -112 -185 -186 -229 -9 -5 -18 6 -29 33 -12 31 -34 54 -85 91
    -39 28 -81 56 -94 62 -38 17 -30 28 19 28 113 0 219 44 232 96 25 98 -108 225
    -331 315 -28 11 -24 13 69 25 54 7 114 18 132 24 39 13 120 83 129 111 7 20
    10 19 47 -17 21 -22 57 -75 79 -119z m-500 110 c70 -13 140 -30 155 -36 l29
    -12 -40 -8 c-22 -4 -83 -10 -135 -14 -89 -6 -97 -5 -130 17 -35 24 -63 65 -54
    80 3 4 15 6 27 3 12 -2 79 -16 148 -30z m-35 -152 l59 -28 -140 -5 c-77 -3
    -142 -4 -144 -3 -8 6 8 15 66 39 74 30 88 30 159 -3z m191 -89 c124 -65 125
    -64 -132 -63 -127 0 -250 4 -275 7 -43 7 -45 8 -45 42 l0 35 70 6 c39 3 125 6
    192 7 l121 2 69 -36z m139 -111 c27 -30 41 -70 28 -83 -5 -5 -80 -1 -174 10
    -91 10 -205 22 -255 26 -73 5 -96 11 -122 31 -18 13 -33 28 -33 34 0 5 105 9
    265 9 l266 0 25 -27z m-163 -94 c76 -7 140 -16 143 -20 9 -15 -21 -22 -146
    -31 l-127 -9 -72 36 c-39 20 -69 40 -67 44 3 4 33 4 68 0 35 -4 125 -13 201
    -20z m-90 -141 l62 -33 -140 -7 c-77 -4 -142 -5 -144 -2 -10 10 30 37 81 55
    70 24 69 24 141 -13z m150 -89 c26 -17 47 -34 47 -39 0 -13 -41 -20 -125 -20
    -44 -1 -131 -7 -193 -13 l-112 -13 -16 24 c-8 13 -14 35 -12 50 l3 27 165 5
    c91 3 172 7 181 8 8 1 37 -12 62 -29z m75 -98 c10 -69 -318 -106 -402 -44 -32
    22 -32 31 -3 38 25 6 377 33 392 30 6 -1 11 -11 13 -24z"></path>
<path d="M6825 1676 c-148 -34 -281 -118 -365 -231 -91 -123 -124 -225 -124
-385 0 -99 4 -126 28 -195 67 -195 251 -358 451 -400 89 -19 230 -19 317 -1
215 46 406 231 464 451 19 71 18 248 -2 316 -61 205 -228 372 -434 434 -76 22
-259 29 -335 11z m258 -107 c20 -5 37 -11 37 -13 0 -4 -91 -154 -145 -239
l-37 -58 -33 21 -34 21 -27 -43 c-16 -24 -37 -54 -48 -66 l-21 -24 24 -19 23
-19 -31 -35 c-34 -39 -32 -59 11 -89 21 -15 24 -14 50 11 27 25 28 26 28 6 0
-16 11 -26 45 -39 32 -12 45 -22 45 -36 0 -12 12 -24 35 -34 50 -20 54 -19 75
31 13 30 25 45 38 45 11 0 29 19 47 50 16 28 34 49 40 47 37 -13 62 -119 50
-212 -8 -64 -43 -112 -121 -166 -48 -32 -64 -36 -64 -14 0 9 9 15 24 15 21 0
24 6 28 43 6 55 1 67 -28 67 -17 0 -24 6 -24 19 0 11 -3 22 -7 24 -5 3 -83 8
-174 12 -164 7 -166 7 -172 -14 -4 -18 -12 -21 -66 -21 -57 0 -61 -1 -67 -26
-12 -45 7 -78 46 -84 31 -4 35 -9 37 -37 4 -47 -13 -42 -77 25 -96 101 -140
211 -140 347 1 281 234 514 515 515 44 0 97 -5 118 -11z m161 -64 c23 -14 53
-35 68 -47 l28 -23 -46 -70 -45 -70 -58 3 c-51 3 -61 1 -80 -20 -13 -12 -25
-35 -28 -50 -3 -16 -10 -28 -15 -28 -8 0 -87 37 -96 45 -5 4 130 233 158 268
26 33 47 31 114 -8z m190 -195 c34 -64 56 -146 55 -199 l-1 -46 -9 39 c-13 56
-67 151 -116 206 l-43 48 22 27 22 28 23 -29 c13 -16 35 -49 47 -74z m-80 -32
c21 -24 52 -72 69 -108 29 -58 32 -76 35 -178 4 -107 3 -115 -24 -169 -91
-182 -322 -294 -541 -263 -95 13 -208 62 -199 86 3 9 6 31 6 50 l0 35 43 -5
c44 -6 194 -15 259 -16 33 0 37 -3 40 -27 3 -25 7 -28 36 -25 40 3 104 45 153
99 64 71 75 208 25 307 -22 44 -22 45 -4 64 23 23 35 92 20 118 -11 21 13 74
33 74 7 0 29 -19 49 -42z m-376 -67 c61 -31 105 -60 120 -80 12 -17 29 -31 37
-31 23 0 25 -15 5 -48 l-20 -32 -102 53 c-57 28 -124 61 -151 72 -51 21 -55
26 -33 44 8 6 19 25 26 41 7 17 14 30 16 30 3 0 48 -22 102 -49z m-94 -109 c8
-13 -60 -75 -73 -68 -18 11 -13 25 17 51 28 25 47 31 56 17z m86 -32 c36 -19
2 -74 -37 -59 -21 8 -21 9 -7 38 17 35 18 35 44 21z m84 -46 c20 -8 20 -27 1
-64 -17 -32 -22 -35 -44 -21 -13 8 -12 15 4 50 10 23 19 41 21 41 1 0 9 -3 18
-6z m-89 -223 l130 -6 3 -26 c2 -16 -3 -29 -11 -32 -15 -6 -342 9 -424 19 -46
5 -53 9 -53 28 0 13 3 26 8 30 4 5 54 5 112 1 58 -4 164 -11 235 -14z"></path>
<path d="M1978 1066 l2 -594 164 -1 c260 -2 358 20 451 102 66 57 98 127 103
225 4 76 2 87 -26 145 -38 77 -69 107 -155 149 l-67 34 49 36 c148 111 129
367 -32 450 -78 39 -134 48 -317 48 l-175 0 3 -594z m417 456 c22 -13 49 -35
59 -49 24 -33 33 -118 17 -166 -13 -38 -60 -90 -102 -112 -28 -15 -165 -35
-236 -35 l-43 0 0 196 0 196 133 -4 c116 -3 137 -6 172 -26z m-15 -483 c26 -6
69 -23 94 -39 128 -81 144 -244 34 -346 -57 -54 -106 -67 -270 -72 l-148 -4 0
242 0 243 121 -7 c67 -4 143 -11 169 -17z"></path>
<path d="M2932 1068 l3 -593 55 0 55 0 3 593 2 592 -60 0 -60 0 2 -592z"></path>
<path d="M4935 1638 c-3 -13 -23 -149 -45 -303 -21 -154 -51 -356 -65 -450
-36 -239 -55 -375 -55 -397 0 -15 7 -17 52 -14 l53 3 31 214 c17 118 43 308
59 422 15 114 32 206 37 205 5 -2 106 -192 223 -423 117 -231 220 -421 227
-423 8 -1 93 156 228 423 118 234 218 425 222 425 3 0 10 -26 14 -57 4 -32 30
-222 58 -423 l51 -364 58 -2 c58 -2 58 -1 53 25 -3 14 -28 181 -56 371 -28
190 -62 419 -75 510 -14 91 -28 191 -31 223 -4 31 -12 57 -18 57 -6 0 -120
-217 -252 -482 -133 -265 -245 -483 -250 -485 -5 -1 -119 216 -254 482 -135
267 -248 485 -252 485 -4 0 -10 -10 -13 -22z"></path>
<path d="M7870 1069 l0 -594 267 2 c201 2 287 7 343 19 181 39 313 157 377
337 31 88 43 261 23 360 -44 227 -202 392 -426 443 -49 12 -143 18 -326 21
l-258 5 0 -593z m485 467 c133 -20 195 -48 271 -118 119 -112 172 -275 145
-446 -24 -155 -100 -266 -225 -327 -95 -47 -138 -54 -368 -62 l-198 -6 0 141
0 142 40 40 c40 40 40 40 88 30 80 -18 79 -17 85 -65 6 -57 45 -117 99 -152
34 -23 55 -29 117 -31 71 -3 80 -1 131 30 42 25 61 45 83 88 26 49 28 62 24
119 -6 78 -40 131 -110 175 -39 24 -59 29 -113 30 l-65 1 -19 64 c-24 76 -24
87 -5 95 23 8 55 67 55 101 0 37 -30 88 -65 111 -58 38 -151 10 -187 -56 -40
-75 19 -180 102 -180 22 0 32 -20 54 -105 l13 -50 -39 -34 c-21 -18 -48 -51
-59 -72 -10 -21 -20 -39 -22 -39 -1 1 -26 7 -56 14 l-55 12 -12 54 c-9 41 -21
63 -48 87 l-36 33 0 195 0 195 143 0 c78 0 183 -6 232 -14z m-19 -70 c28 -28
34 -41 34 -77 -1 -69 -44 -109 -118 -109 -107 0 -149 145 -58 201 50 31 102
25 142 -15z m-316 -378 c40 -67 34 -124 -19 -172 l-21 -19 0 111 c0 69 4 112
10 112 6 0 19 -15 30 -32z m516 -43 c39 -30 74 -99 74 -146 -1 -50 -33 -112
-76 -145 -34 -26 -45 -29 -114 -29 -69 0 -80 3 -114 29 -43 33 -75 95 -76 145
0 47 35 116 75 147 63 48 168 47 231 -1z"></path>
                </g>
              </svg>
